<?xml version="1.0" encoding="utf-8"?>
<!-- Generator: Adobe Illustrator 22.0.0, SVG Export Plug-In . SVG Version: 6.00 Build 0)  -->
<svg version="1.1" id="Layer_1" xmlns="http://www.w3.org/2000/svg" xmlns:xlink="http://www.w3.org/1999/xlink" x="0px" y="0px"
	 viewBox="0 0 40 40" style="enable-background:new 0 0 40 40;" xml:space="preserve">
<style type="text/css">
	.st0{fill-rule:evenodd;clip-rule:evenodd;fill:#686877;}
</style>
<path class="st0" d="M38.2,21.3L32,28.6c-0.3,0.4-0.6,0.7-1,0.9c-1.1,0.7-2.4,1-3.9,1H18c-0.6,0-1.2,0-1.8,0.1l-0.4,0l0,0
	c0.2,0.2,0.3,0.5,0.3,0.7c0,0.3-0.1,0.6-0.3,0.8l-5.2,5.4c-0.2,0.2-0.5,0.3-0.7,0.3c-0.3,0-0.5-0.1-0.7-0.3l-8.8-8.5
	C0.1,29,0,28.7,0,28.4c0-0.3,0.1-0.6,0.3-0.8l5.2-5.5C5.7,22,6,21.8,6.3,21.8c0.3,0,0.5,0.1,0.7,0.3L7.8,23c0.4-0.5,1-1.3,1.8-1.9
	c1.6-1.3,3.4-2,5.4-2c0.8,0,1.6,0.1,2.4,0.3c1,0.3,2.1,0.4,3.2,0.4h6c1,0,1.8,0.4,2.4,1.1c0,0,0.1,0.1,0.1,0.1l4-4
	c0.6-0.6,1.5-1,2.4-1l0.2,0c0.9,0,1.7,0.4,2.3,1C39.3,18.2,39.3,19.9,38.2,21.3z M6.3,24.4l-3.8,4l7.3,7.1l3.7-3.9L6.3,24.4z
	 M36.6,18.5c-0.3-0.3-0.7-0.4-1.1-0.4c-0.3,0-0.6,0.1-0.9,0.4l-4.8,4.9c0,0.8-0.3,1.5-0.8,2c-0.6,0.7-1.4,1.1-2.4,1.1h-5.2
	c-0.6,0-1-0.5-1-1.1c0-0.6,0.5-1.1,1-1.1h5.2c0.4,0,0.6-0.1,0.8-0.3c0.2-0.2,0.3-0.5,0.3-0.9c0-0.1,0-1.2-1.1-1.2h-6
	c-1.3,0-2.6-0.2-3.7-0.5c-0.6-0.2-1.3-0.3-1.9-0.3c-1.4,0-2.8,0.5-4,1.5c-0.7,0.6-1.3,1.3-1.6,1.8l4.5,4.4l2.1-0.2
	c0.7-0.1,1.4-0.1,2.1-0.1h9.1c1.1,0,2-0.2,2.8-0.7c0.2-0.2,0.4-0.3,0.6-0.6l6.1-7.3C37,19.4,37,19,36.6,18.5z M18.5,26.4
	c-0.1,0-0.2,0-0.2,0c-0.5,0-0.9-0.3-1-0.8c-0.1-0.3,0-0.6,0.1-0.8c0.1-0.2,0.4-0.4,0.6-0.5c0.1,0,0.2,0,0.2,0c0.5,0,0.9,0.3,1,0.8
	C19.4,25.7,19,26.3,18.5,26.4z M28,17H14c-1.1,0-2-0.9-2-2V5c0-1.1,0.9-2,2-2h14c1.1,0,2,0.9,2,2v10C30,16.1,29.1,17,28,17z M14,15
	h14v-2H14V15z M28,5H14v2h8c0.6,0,1,0.4,1,1s-0.4,1-1,1h-8v2h14V9h-2c-0.6,0-1-0.4-1-1s0.4-1,1-1h2V5z"/>
</svg>
